Twitter Vaccination Sentiment Analysis
…
Next we create a dataframe with the most uncommon words. We can start with words repeated only once.

uncomm_words <- temp %>% 
  filter(n == 1) %>% 
  select(word)
uncomm_words

## # A tibble: 2,285 x 1
##    word       
##    <chr>      
##  1 a.schiff   
##  2 aaa        
##  3 aaasmtg    
##  4 aah        
##  5 aapi       
##  6 abound     
##  7 abovemajest
##  8 abstract   
##  9 absurd     
## 10 abt        
## # ... with 2,275 more rows
…
